…
``` r
library("gitsum")
library("tidyverse")
library("forcats")
```

We can obtain a parsed log like this:

``` r
init_gitsum()
tbl <- parse_log_detailed() %>%
  select(short_hash, short_message, total_files_changed, nested)
tbl 
#> # A tibble: 149 x 4
#>    short_hash short_message        total_files_changed nested           
#>    <chr>      <chr>                              <int> <list>           
#>  1 243f       initial commit                         7 <tibble [7 × 5]> 
#>  2 f8ee       add log example data                   1 <tibble [1 × 5]> 
#>  3 6328       add parents                            3 <tibble [3 × 5]> 
#>  4 dfab       intermediate                           1 <tibble [1 × 5]> 
#>  5 7825       add licence                            1 <tibble [1 × 5]> 
#>  6 2ac3       add readme                             2 <tibble [2 × 5]> 
#>  7 7a2a       document log data                      1 <tibble [1 × 5]> 
#>  8 943c       add helpfiles                         10 <tibble [10 × 5]>
#>  9 917e       update infrastructur                   3 <tibble [3 × 5]> 
#> 10 4fc0       remove garbage                         6 <tibble [6 × 5]> 
#> # ... with 139 more rows
```
…
