Parse and summarize git repositories • gitsum
…
parse_log_simple is a relatively fast parser and returns a tibble with one commit per row. There is no file-specific information.

parse_log_detailed outputs a nested tibble and for each commit, the names of the amended files, number of lines changed ect. available. This function is slower.

git_report creates a html, pdf, or word report with the parsed log data according to a template. Templates can be created by the user or a template from the gitsum package can be used.

library("gitsum")
library("tidyverse")
library("forcats")

tbl <- parse_log_detailed() %>%
  arrange(date) %>%
  select(short_hash, short_message, total_files_changed, nested)
tbl 
#> # A tibble: 60 x 4
#>    short_hash        short_message total_files_changed            nested
#>         <chr>                <chr>               <dbl>            <list>
#>  1       243f       initial commit                   7  <tibble [7 x 5]>
#>  2       f8ee add log example data                   1  <tibble [1 x 5]>
#>  3       6328          add parents                   3  <tibble [3 x 5]>
#>  4       dfab         intermediate                   1  <tibble [1 x 5]>
#>  5       7825          add licence                   1  <tibble [1 x 5]>
#>  6       2ac3           add readme                   2  <tibble [2 x 5]>
#>  7       7a2a    document log data                   1  <tibble [1 x 5]>
#>  8       943c        add helpfiles                  10 <tibble [10 x 5]>
#>  9       917e update infrastructur                   3  <tibble [3 x 5]>
#> 10       4fc0       remove garbage                   6  <tibble [6 x 5]>
#> # ... with 50 more rows
…
